%!PS-Adobe-3.0 EPSF-3.0
%%HiResBoundingBox: 0.000000 0.000000 580.000000 274.000000
%APL_DSC_Encoding: UTF8
%APLProducer: (Version 10.11.4 (Build 15E65) Quartz PS Context)
%%Title: (Unknown)
%%Creator: (Unknown)
%%CreationDate: (Unknown)
%%For: (Unknown)
%%DocumentData: Clean7Bit
%%LanguageLevel: 2
%%Pages: 1
%%BoundingBox: 0 0 580 274
%%EndComments
%%BeginProlog
%%BeginFile: cg-pdf.ps
%%Copyright: Copyright 2000-2004 Apple Computer Incorporated.
%%Copyright: All Rights Reserved.
currentpacking true setpacking
/cg_md 141 dict def
cg_md begin
/L3? languagelevel 3 ge def
/bd{bind def}bind def
/ld{load def}bd
/xs{exch store}bd
/xd{exch def}bd
/cmmtx matrix def
mark
/sc/setcolor
/scs/setcolorspace
/dr/defineresource
/fr/findresource
/T/true
/F/false
/d/setdash
/w/setlinewidth
/J/setlinecap
/j/setlinejoin
/M/setmiterlimit
/i/setflat
/rc/rectclip
/rf/rectfill
/rs/rectstroke
/f/fill
/f*/eofill
/sf/selectfont
/s/show
/xS/xshow
/yS/yshow
/xyS/xyshow
/S/stroke
/m/moveto
/l/lineto
/c/curveto
/h/closepath
/n/newpath
/q/gsave
/Q/grestore
counttomark 2 idiv
{ld}repeat pop
/SC{	
    /ColorSpace fr scs
}bd
/sopr /setoverprint where{pop/setoverprint}{/pop}ifelse ld
/soprm /setoverprintmode where{pop/setoverprintmode}{/pop}ifelse ld
/cgmtx matrix def
/sdmtx{cgmtx currentmatrix pop}bd
/CM {cgmtx setmatrix}bd		
/cm {cmmtx astore CM concat}bd	
/W{clip newpath}bd
/W*{eoclip newpath}bd
statusdict begin product end dup (HP) anchorsearch{
    pop pop pop	
    true
}{
    pop	
   (hp) anchorsearch{
	pop pop true
    }{
	pop false
    }ifelse
}ifelse
{	
    { 
	{ 
	    pop pop 
	    (0)dup 0 4 -1 roll put
	    F charpath
	}cshow
    }
}{
    {F charpath}
}ifelse
/cply exch bd
/cps {cply stroke}bd
/pgsave 0 def
/bp{/pgsave save store}bd
/ep{pgsave restore showpage}def		
/re{4 2 roll m 1 index 0 rlineto 0 exch rlineto neg 0 rlineto h}bd
/scrdict 10 dict def
/scrmtx matrix def
/patarray 0 def
/createpat{patarray 3 1 roll put}bd
/makepat{
scrmtx astore pop
gsave
initgraphics
CM 
patarray exch get
scrmtx
makepattern
grestore
setpattern
}bd
/cg_BeginEPSF{
    userdict save/cg_b4_Inc_state exch put
    userdict/cg_endepsf/cg_EndEPSF load put
    count userdict/cg_op_count 3 -1 roll put 
    countdictstack dup array dictstack userdict/cg_dict_array 3 -1 roll put
    3 sub{end}repeat
    /showpage {} def
    0 setgray 0 setlinecap 1 setlinewidth 0 setlinejoin
    10 setmiterlimit [] 0 setdash newpath
    false setstrokeadjust false setoverprint	
}bd
/cg_EndEPSF{
  countdictstack 3 sub { end } repeat
  cg_dict_array 3 1 index length 3 sub getinterval
  {begin}forall
  count userdict/cg_op_count get sub{pop}repeat
  userdict/cg_b4_Inc_state get restore
  F setpacking
}bd
/cg_biproc{currentfile/RunLengthDecode filter}bd
/cg_aiproc{currentfile/ASCII85Decode filter/RunLengthDecode filter}bd
/ImageDataSource 0 def
L3?{
    /cg_mibiproc{pop pop/ImageDataSource{cg_biproc}def}bd
    /cg_miaiproc{pop pop/ImageDataSource{cg_aiproc}def}bd
}{
    /ImageBandMask 0 def
    /ImageBandData 0 def
    /cg_mibiproc{
	string/ImageBandMask xs
	string/ImageBandData xs
	/ImageDataSource{[currentfile/RunLengthDecode filter dup ImageBandMask/readstring cvx
	    /pop cvx dup ImageBandData/readstring cvx/pop cvx]cvx bind}bd
    }bd
    /cg_miaiproc{	
	string/ImageBandMask xs
	string/ImageBandData xs
	/ImageDataSource{[currentfile/ASCII85Decode filter/RunLengthDecode filter
	    dup ImageBandMask/readstring cvx
	    /pop cvx dup ImageBandData/readstring cvx/pop cvx]cvx bind}bd
    }bd
}ifelse
/imsave 0 def
/BI{save/imsave xd mark}bd
/EI{imsave restore}bd
/ID{
counttomark 2 idiv
dup 2 add	
dict begin
{def} repeat
pop		
/ImageType 1 def
/ImageMatrix[Width 0 0 Height neg 0 Height]def
currentdict dup/ImageMask known{ImageMask}{F}ifelse exch
L3?{
    dup/MaskedImage known
    { 
	pop
	<<
	    /ImageType 3
	    /InterleaveType 2
	    /DataDict currentdict
	    /MaskDict
	    <<  /ImageType 1
		/Width Width
		/Height Height
		/ImageMatrix ImageMatrix
		/BitsPerComponent 1
		/Decode [0 1]
		currentdict/Interpolate known
		{/Interpolate Interpolate}if
	    >>
	>>
    }if
}if
exch
{imagemask}{image}ifelse	
end	
}bd
/cguidfix{statusdict begin mark version end
{cvr}stopped{cleartomark 0}{exch pop}ifelse
2012 lt{dup findfont dup length dict begin
{1 index/FID ne 2 index/UniqueID ne and
{def} {pop pop} ifelse}forall
currentdict end definefont pop
}{pop}ifelse
}bd
/t_array 0 def
/t_i 0 def
/t_c 1 string def
/x_proc{ 
    exch t_array t_i get add exch moveto
    /t_i t_i 1 add store
}bd
/y_proc{ 
    t_array t_i get add moveto
    /t_i t_i 1 add store
}bd
/xy_proc{
        
	t_array t_i 2 copy 1 add get 3 1 roll get 
	4 -1 roll add 3 1 roll add moveto
	/t_i t_i 2 add store
}bd
/sop 0 def		
/cp_proc/x_proc ld 	
/base_charpath		
{
    /t_array xs
    /t_i 0 def
    { 
	t_c 0 3 -1 roll put
        currentpoint
	t_c cply sop
        cp_proc
    }forall
    /t_array 0 def
}bd
/sop/stroke ld		
/nop{}def
/xsp/base_charpath ld
/ysp{/cp_proc/y_proc ld base_charpath/cp_proc/x_proc ld}bd
/xysp{/cp_proc/xy_proc ld base_charpath/cp_proc/x_proc ld}bd
/xmp{/sop/nop ld /cp_proc/x_proc ld base_charpath/sop/stroke ld}bd
/ymp{/sop/nop ld /cp_proc/y_proc ld base_charpath/sop/stroke ld}bd
/xymp{/sop/nop ld /cp_proc/xy_proc ld base_charpath/sop/stroke ld}bd
/refnt{ 
findfont dup length dict copy dup
/Encoding 4 -1 roll put 
definefont pop
}bd
/renmfont{ 
findfont dup length dict copy definefont pop
}bd
L3? dup dup{save exch}if
/Range 0 def
/DataSource 0 def
/val 0 def
/nRange 0 def
/mulRange 0 def
/d0 0 def
/r0 0 def
/di 0 def
/ri 0 def
/a0 0 def
/a1 0 def
/r1 0 def
/r2 0 def
/dx 0 def
/Nsteps 0 def
/sh3tp 0 def
/ymax 0 def
/ymin 0 def
/xmax 0 def
/xmin 0 def
/setupFunEval 
{
    begin
	/nRange Range length 2 idiv store
	/mulRange   
		    
	[ 
	    0 1 nRange 1 sub
	    { 
		    2 mul/nDim2 xd		
		    Range nDim2 get		
		    Range nDim2 1 add get	
		    1 index sub			
						
		    255 div			
		    exch			
	    }for
	]store
    end
}bd
/FunEval 
{
    begin
	
	nRange mul /val xd	
				
	0 1 nRange 1 sub
	{
	    dup 2 mul/nDim2 xd 
	    val	
	    add DataSource exch get 
	    mulRange nDim2 get mul 	
	    mulRange nDim2 1 add get 
	    add 
	}for	
    end
}bd
/max 
{
	2 copy lt
	{exch pop}{pop}ifelse
}bd
/sh2
{	
	/Coords load aload pop 	
	3 index 3 index translate	
					
	3 -1 roll sub	
	3 1 roll exch 	
	sub				
	2 copy
	dup mul exch dup mul add sqrt	
	dup
	scale  
	atan	
	
	rotate		
	
	/Function load setupFunEval	
	
	
	clippath {pathbbox}stopped {0 0 0 0}if newpath 	
	/ymax xs
	/xmax xs
	/ymin xs
	/xmin xs
	currentdict/Extend known
	{
		/Extend load 0 get
		{	
			0/Function load FunEval sc	
			xmin ymin xmin abs ymax ymin sub rectfill
		}if
	}if
	
	/Nsteps/Function load/Size get 0 get 1 sub store
	/dx 1 Nsteps div store
	gsave
		/di ymax ymin sub store
		/Function load
		
		0 1 Nsteps
		{
			1 index FunEval sc
			0 ymin dx di rectfill
			dx 0 translate
		}for
		pop	
	grestore	
	currentdict/Extend known
	{
		/Extend load 1 get
		{	
			Nsteps/Function load FunEval sc	
			1 ymin xmax 1 sub abs ymax ymin sub rectfill
		}if
	}if
}bd
/shp	
{	
	4 copy
	
	dup 0 gt{
		0 exch a1 a0 arc
	}{
		pop 0 moveto
	}ifelse
	dup 0 gt{
		0 exch a0 a1 arcn
	}{
		pop 0 lineto
	}ifelse
	
	fill
	
	dup 0 gt{
		0 exch a0 a1 arc
	}{
		pop 0 moveto
	}ifelse
	dup 0 gt{
		0 exch a1 a0 arcn
	}{
		pop 0 lineto
	}ifelse
	
	fill
}bd
/calcmaxs
{	
	
	xmin dup mul ymin dup mul add sqrt		
	xmax dup mul ymin dup mul add sqrt		
	xmin dup mul ymax dup mul add sqrt		
	xmax dup mul ymax dup mul add sqrt		
	max max max								
}bd
/sh3
{	
	/Coords load aload pop 	
	5 index 5 index translate	
	3 -1 roll 6 -1 roll sub		
	3 -1 roll 5 -1 roll sub		
	2 copy dup mul exch dup mul add sqrt
	/dx xs						
	2 copy 0 ne exch 0 ne or
	{
		
		exch atan rotate	
	}{
		pop pop
	}ifelse
	
	/r2 xs
	/r1 xs
	/Function load 
	dup/Size get 0 get 1 sub	
	/Nsteps xs		
	setupFunEval		
	
	
	
	
	
	dx r2 add r1 lt{
		
		0 
	}{
		dx r1 add r2 le
		{ 
			1
		}{ 
			r1 r2 eq
			{	
				2
			}{ 
				3
			}ifelse		
		}ifelse
	}ifelse
	/sh3tp xs		
	clippath {pathbbox}stopped {0 0 0 0}if 
	newpath 	
	/ymax xs
	/xmax xs
	/ymin xs
	/xmin xs
	
	dx dup mul r2 r1 sub dup mul sub dup 0 gt
	{
		sqrt r2 r1 sub atan
		/a0 exch 180 exch sub store 
		/a1 a0 neg store 
	}{
		pop
		/a0 0 store
		/a1 360 store		
	}ifelse		
	currentdict/Extend known
	{
		/Extend load 0 get r1 0 gt and	
		{	
			0/Function load FunEval sc	
			
			
			
			
			{ 
				{	
					dx 0 r1 360 0 arcn
					xmin ymin moveto
					xmax ymin lineto
					xmax ymax lineto
					xmin ymax lineto
					xmin ymin lineto
					eofill		
				}
				{	
					r1 0 gt{0 0 r1 0 360 arc fill}if
				}
				{	
					
					
				
					
					0 r1 xmin abs r1 add neg r1 shp
				}
				{	
					
				
					r2 r1 gt{	
						
						0 r1
						r1 neg r2 r1 sub div dx mul	
						0	
						shp	
					}{	
						
						
						
						0 r1 calcmaxs	
						dup
						
						r2 add dx mul dx r1 r2 sub sub div
						neg				
						exch 1 index	
						abs exch sub
						shp
					}ifelse
				} 
			}sh3tp get exec	
		}if
	}if
	
	/d0 0 store
	/r0 r1 store
	/di dx Nsteps div store
	/ri r2 r1 sub Nsteps div store 
	/Function load 
	0 1 Nsteps
	{	
		1 index FunEval sc
		d0 di add r0 ri add d0 r0 shp
		{
		
		d0 0 r0 a1 a0 arc
		d0 di add 0 r0 ri add a0 a1 arcn
		fill
		
		
		d0 0 r0 a0 a1 arc
		d0 di add 0 r0 ri add a1 a0 arcn
		fill
		}pop
		
		
		/d0 d0 di add store
		/r0 r0 ri add store
	}for
	pop	
	
	currentdict/Extend known
	{
		/Extend load 1 get r2 0 gt and	
		{	
			Nsteps/Function load FunEval sc	
			
			
			
			
			{ 
				{
					dx 0 r2 0 360 arc fill
				} 
				{
					dx 0 r2 360 0 arcn
					xmin ymin moveto
					xmax ymin lineto
					xmax ymax lineto
					xmin ymax lineto
					xmin ymin lineto
					eofill		
				} 
				{	
					
					
					xmax abs r1 add r1 dx r1 shp
				}	
				{	
			
					r2 r1 gt{
						
						
						
						calcmaxs dup	
						
						r1 add dx mul dx r2 r1 sub sub div	
						exch 1 index	
						exch sub
						dx r2
						shp
					}{	
						
						r1 neg r2 r1 sub div dx mul	
						0		
						dx 		
						r2		
						shp
					}ifelse
				}
			}			
			sh3tp get exec	
		}if
	}if
}bd
/sh		
{	
	begin
		/ShadingType load dup dup 2 eq exch 3 eq or
		{	
			gsave
				newpath
				/ColorSpace load scs
				currentdict/BBox known
				{
					/BBox load aload pop	
					2 index sub				
					3 index					
					3 -1 roll exch sub 
					exch rectclip
				}if
				2 eq
				{sh2}{sh3}ifelse
			grestore
		}{
			
			pop 
			(DEBUG: shading type unimplemented\n)print flush
		}ifelse
	end
}bd
{restore}if not dup{save exch}if
	L3?{	
		/sh/shfill ld
		/csq/clipsave ld
		/csQ/cliprestore ld
	}if
{restore}if
end
setpacking
%%EndFile
%%EndProlog
%%BeginSetup
%%EndSetup
%%Page: 1 1
%%PageBoundingBox: 0 0 580 274
%%BeginPageSetup
cg_md begin
bp
sdmtx
[ /CIEBasedABC 4 dict dup begin 
/WhitePoint [ 0.9505 1.0000 1.0891 ] def 
/DecodeABC [ { 1.8008  exp } bind { 1.8008  exp } bind { 1.8008  exp } bind ] def 
/MatrixABC [ 0.4295 0.2318 0.0204 0.3278 0.6722 0.1111 0.1933 0.0960 0.9578 ] def 
/RangeLMN [ 0.0 0.9505 0.0 1.0000 0.0 1.0891 ] def 
end ] /Cs1 exch/ColorSpace dr pop
%%EndPageSetup
0.60000002 i
/Cs1 SC
1 1 1 sc
q
0 0 580 274 rc
122.72791 266.72791 m
129.75737 259.69849 129.75737 248.30153 122.72791 241.27209 c
115.69848 234.24263 104.30152 234.24263 97.272095 241.27209 c
90.242622 248.30153 90.242622 259.69849 97.272095 266.72791 c
104.30152 273.75739 115.69848 273.75739 122.72791 266.72791 c
f
1 J
1 j
0 0 0 sc
1 0 0 -1 -34 371 cm
156.72791 104.27209 m
163.75737 111.30152 163.75737 122.69848 156.72791 129.72791 c
149.69847 136.75737 138.30153 136.75737 131.27209 129.72791 c
124.24262 122.69848 124.24262 111.30152 131.27209 104.27209 c
138.30153 97.242622 149.69847 97.242622 156.72791 104.27209 c
S
0.84256601 0.0169363 0 sc
CM
176.72791 266.72791 m
183.75737 259.69849 183.75737 248.30153 176.72791 241.27209 c
169.69847 234.24263 158.30153 234.24263 151.27209 241.27209 c
144.24263 248.30153 144.24263 259.69849 151.27209 266.72791 c
158.30153 273.75739 169.69847 273.75739 176.72791 266.72791 c
f
0 0 0 sc
1 0 0 -1 -34 371 cm
210.72791 104.27209 m
217.75737 111.30152 217.75737 122.69848 210.72791 129.72791 c
203.69847 136.75737 192.30153 136.75737 185.27209 129.72791 c
178.24263 122.69848 178.24263 111.30152 185.27209 104.27209 c
192.30153 97.242622 203.69847 97.242622 210.72791 104.27209 c
S
1 1 1 sc
CM
221.72791 239.72791 m
228.75737 232.69847 228.75737 221.30153 221.72791 214.27209 c
214.69847 207.24263 203.30153 207.24263 196.27209 214.27209 c
189.24263 221.30153 189.24263 232.69847 196.27209 239.72791 c
203.30153 246.75737 214.69847 246.75737 221.72791 239.72791 c
f
0 0 0 sc
1 0 0 -1 -34 371 cm
255.72791 131.27209 m
262.75739 138.30153 262.75739 149.69847 255.72791 156.72791 c
248.69847 163.75737 237.30153 163.75737 230.27209 156.72791 c
223.24263 149.69847 223.24263 138.30153 230.27209 131.27209 c
237.30153 124.24262 248.69847 124.24262 255.72791 131.27209 c
S
1 1 1 sc
CM
257.72791 203.72791 m
264.75739 196.69847 264.75739 185.30153 257.72791 178.27209 c
250.69847 171.24263 239.30153 171.24263 232.27209 178.27209 c
225.24263 185.30153 225.24263 196.69847 232.27209 203.72791 c
239.30153 210.75737 250.69847 210.75737 257.72791 203.72791 c
f
0 0 0 sc
1 0 0 -1 -34 371 cm
291.72791 167.27209 m
298.75739 174.30153 298.75739 185.69847 291.72791 192.72791 c
284.69849 199.75737 273.30151 199.75737 266.27209 192.72791 c
259.24261 185.69847 259.24261 174.30153 266.27209 167.27209 c
273.30151 160.24263 284.69849 160.24263 291.72791 167.27209 c
S
1 1 1 sc
CM
266.72791 149.72791 m
273.75739 142.69847 273.75739 131.30153 266.72791 124.27209 c
259.69849 117.24262 248.30153 117.24262 241.27209 124.27209 c
234.24263 131.30153 234.24263 142.69847 241.27209 149.72791 c
248.30153 156.75737 259.69849 156.75737 266.72791 149.72791 c
f
0 0 0 sc
1 0 0 -1 -34 371 cm
300.72791 221.27209 m
307.75739 228.30153 307.75739 239.69847 300.72791 246.72791 c
293.69849 253.75737 282.30151 253.75737 275.27209 246.72791 c
268.24261 239.69847 268.24261 228.30153 275.27209 221.27209 c
282.30151 214.24263 293.69849 214.24263 300.72791 221.27209 c
S
1 1 1 sc
CM
77.727905 239.72791 m
84.757378 232.69847 84.757378 221.30153 77.727905 214.27209 c
70.698479 207.24263 59.301525 207.24263 52.272091 214.27209 c
45.242622 221.30153 45.242622 232.69847 52.272091 239.72791 c
59.301525 246.75737 70.698479 246.75737 77.727905 239.72791 c
f
0 0 0 sc
1 0 0 -1 -34 371 cm
111.72791 131.27209 m
118.75738 138.30153 118.75738 149.69847 111.72791 156.72791 c
104.69848 163.75737 93.301521 163.75737 86.272095 156.72791 c
79.242622 149.69847 79.242622 138.30153 86.272095 131.27209 c
93.301521 124.24262 104.69848 124.24262 111.72791 131.27209 c
S
1 1 1 sc
CM
41.727909 203.72791 m
48.757378 196.69847 48.757378 185.30153 41.727909 178.27209 c
34.698475 171.24263 23.301523 171.24263 16.272093 178.27209 c
9.2426243 185.30153 9.2426243 196.69847 16.272093 203.72791 c
23.301523 210.75737 34.698475 210.75737 41.727909 203.72791 c
f
0 0 0 sc
1 0 0 -1 -34 371 cm
75.727905 167.27209 m
82.757378 174.30153 82.757378 185.69847 75.727905 192.72791 c
68.698479 199.75737 57.301525 199.75737 50.272091 192.72791 c
43.242622 185.69847 43.242622 174.30153 50.272091 167.27209 c
57.301525 160.24263 68.698479 160.24263 75.727905 167.27209 c
S
0.84256601 0.0169363 0 sc
CM
151.27209 7.2720919 m
144.24263 14.301524 144.24263 25.698477 151.27209 32.727909 c
158.30153 39.757378 169.69847 39.757378 176.72791 32.727909 c
183.75737 25.698477 183.75737 14.301524 176.72791 7.2720919 c
169.69847 0.242624 158.30153 0.242624 151.27209 7.2720919 c
f
0 0 0 sc
1 0 0 -1 -34 371 cm
185.27209 363.72791 m
178.24263 356.69849 178.24263 345.30151 185.27209 338.27209 c
192.30153 331.24261 203.69847 331.24261 210.72791 338.27209 c
217.75737 345.30151 217.75737 356.69849 210.72791 363.72791 c
203.69847 370.75739 192.30153 370.75739 185.27209 363.72791 c
S
1 1 1 sc
CM
52.272091 34.272091 m
45.242622 41.301525 45.242622 52.698475 52.272091 59.727909 c
59.301525 66.757378 70.698479 66.757378 77.727905 59.727909 c
84.757378 52.698475 84.757378 41.301525 77.727905 34.272091 c
70.698479 27.242624 59.301525 27.242624 52.272091 34.272091 c
f
0 0 0 sc
1 0 0 -1 -34 371 cm
86.272095 336.72791 m
79.242622 329.69849 79.242622 318.30151 86.272095 311.27209 c
93.301521 304.24261 104.69848 304.24261 111.72791 311.27209 c
118.75738 318.30151 118.75738 329.69849 111.72791 336.72791 c
104.69848 343.75739 93.301521 343.75739 86.272095 336.72791 c
S
0.84256601 0.0169363 0 sc
CM
16.272093 70.272095 m
9.2426243 77.301521 9.2426243 88.698479 16.272093 95.727905 c
23.301523 102.75738 34.698475 102.75738 41.727909 95.727905 c
48.757378 88.698479 48.757378 77.301521 41.727909 70.272095 c
34.698475 63.242622 23.301523 63.242622 16.272093 70.272095 c
f
0 0 0 sc
1 0 0 -1 -34 371 cm
50.272091 300.72791 m
43.242622 293.69849 43.242622 282.30151 50.272091 275.27209 c
57.301525 268.24261 68.698479 268.24261 75.727905 275.27209 c
82.757378 282.30151 82.757378 293.69849 75.727905 300.72791 c
68.698479 307.75739 57.301525 307.75739 50.272091 300.72791 c
S
1 1 1 sc
CM
232.27209 70.272095 m
225.24263 77.301521 225.24263 88.698479 232.27209 95.727905 c
239.30153 102.75738 250.69847 102.75738 257.72791 95.727905 c
264.75739 88.698479 264.75739 77.301521 257.72791 70.272095 c
250.69847 63.242622 239.30153 63.242622 232.27209 70.272095 c
f
0 0 0 sc
1 0 0 -1 -34 371 cm
266.27209 300.72791 m
259.24261 293.69849 259.24261 282.30151 266.27209 275.27209 c
273.30151 268.24261 284.69849 268.24261 291.72791 275.27209 c
298.75739 282.30151 298.75739 293.69849 291.72791 300.72791 c
284.69849 307.75739 273.30151 307.75739 266.27209 300.72791 c
S
162.50002 117 m
179.49998 117 l
S
213.73134 126.7429 m
226.8914 134.89333 l
S
59.580891 269.81696 m
56.297863 252.35757 l
S
68.355423 222.32852 m
183.60683 128.625 l
S
75.238762 301.87387 m
84.556908 312.43695 l
S
179.49998 351 m
162.50002 351 l
S
128.26866 341.25711 m
115.1086 333.10666 l
S
107.17596 307.39926 m
124.05207 273.13342 143.95961 233.51865 157.80937 204.59148 c
171.65912 175.66431 179.4594 157.40739 190.28279 133.81889 c
S
186.53294 336.48038 m
74.436676 194.54362 l
S
106.98383 160.69402 m
190.01349 334.30728 l
S
148.15775 135.02921 m
193.80734 332.97885 l
S
213.73135 341.25708 m
226.8914 333.10666 l
S
212.57828 339.60742 m
264.27731 299.20584 l
S
209.27719 336.33206 m
276.69354 248.64536 l
S
180.16199 346.08362 m
116.90896 328.65033 l
S
255.23875 310.12613 m
264.55692 299.56305 l
S
281.27271 269.63931 m
283.46381 251.9381 l
S
276.71011 219.34184 m
209.21771 131.71361 l
S
205.9212 133.72382 m
271.0737 271.27859 l
S
267.53296 273.48038 m
155.43668 131.54362 l
S
136.0788 133.72382 m
70.926285 271.27859 l
S
201.93367 135.07919 m
239.10365 305.91275 l
S
228.55214 155.55713 m
77.440773 276.43405 l
S
79.55127 279.72437 m
262.44873 188.27563 l
S
270.00766 238.31508 m
80.983589 283.64841 l
S
260.5 288 m
81.500008 288 l
S
63 198.50002 m
63 269.5 l
S
94.500305 161.94725 m
67.402344 270.02872 l
S
1 1 1 sc
CM
32.727909 149.72791 m
39.757378 142.69847 39.757378 131.30153 32.727909 124.27209 c
25.698477 117.24262 14.301524 117.24262 7.2720919 124.27209 c
0.242624 131.30153 0.242624 142.69847 7.2720919 149.72791 c
14.301524 156.75737 25.698477 156.75737 32.727909 149.72791 c
f
0 0 0 sc
1 0 0 -1 -34 371 cm
66.727905 221.27209 m
73.757378 228.30153 73.757378 239.69847 66.727905 246.72791 c
59.698475 253.75737 48.301525 253.75737 41.272091 246.72791 c
34.242622 239.69847 34.242622 228.30153 41.272091 221.27209 c
48.301525 214.24263 59.698475 214.24263 66.727905 221.27209 c
S
1 1 1 sc
CM
97.272095 7.2720919 m
90.242622 14.301524 90.242622 25.698477 97.272095 32.727909 c
104.30152 39.757378 115.69848 39.757378 122.72791 32.727909 c
129.75737 25.698477 129.75737 14.301524 122.72791 7.2720919 c
115.69848 0.242624 104.30152 0.242624 97.272095 7.2720919 c
f
0 0 0 sc
1 0 0 -1 -34 371 cm
131.27209 363.72791 m
124.24262 356.69849 124.24262 345.30151 131.27209 338.27209 c
138.30153 331.24261 149.69847 331.24261 156.72791 338.27209 c
163.75737 345.30151 163.75737 356.69849 156.72791 363.72791 c
149.69847 370.75739 138.30153 370.75739 131.27209 363.72791 c
S
1 1 1 sc
CM
196.27209 34.272091 m
189.24263 41.301525 189.24263 52.698475 196.27209 59.727909 c
203.30153 66.757378 214.69847 66.757378 221.72791 59.727909 c
228.75737 52.698475 228.75737 41.301525 221.72791 34.272091 c
214.69847 27.242624 203.30153 27.242624 196.27209 34.272091 c
f
0 0 0 sc
1 0 0 -1 -34 371 cm
230.27209 336.72791 m
223.24263 329.69849 223.24263 318.30151 230.27209 311.27209 c
237.30153 304.24261 248.69847 304.24261 255.72791 311.27209 c
262.75739 318.30151 262.75739 329.69849 255.72791 336.72791 c
248.69847 343.75739 237.30153 343.75739 230.27209 336.72791 c
S
1 1 1 sc
CM
428.72791 266.72791 m
435.75739 259.69849 435.75739 248.30153 428.72791 241.27209 c
421.69849 234.24263 410.30151 234.24263 403.27209 241.27209 c
396.24261 248.30153 396.24261 259.69849 403.27209 266.72791 c
410.30151 273.75739 421.69849 273.75739 428.72791 266.72791 c
f
0 0 0 sc
1 0 0 -1 -34 371 cm
462.72791 104.27209 m
469.75739 111.30152 469.75739 122.69848 462.72791 129.72791 c
455.69849 136.75737 444.30151 136.75737 437.27209 129.72791 c
430.24261 122.69848 430.24261 111.30152 437.27209 104.27209 c
444.30151 97.242622 455.69849 97.242622 462.72791 104.27209 c
S
1 1 1 sc
CM
482.72791 266.72791 m
489.75739 259.69849 489.75739 248.30153 482.72791 241.27209 c
475.69849 234.24263 464.30151 234.24263 457.27209 241.27209 c
450.24261 248.30153 450.24261 259.69849 457.27209 266.72791 c
464.30151 273.75739 475.69849 273.75739 482.72791 266.72791 c
f
0 0 0 sc
1 0 0 -1 -34 371 cm
516.72791 104.27209 m
523.75739 111.30152 523.75739 122.69848 516.72791 129.72791 c
509.69849 136.75737 498.30151 136.75737 491.27209 129.72791 c
484.24261 122.69848 484.24261 111.30152 491.27209 104.27209 c
498.30151 97.242622 509.69849 97.242622 516.72791 104.27209 c
S
1 1 1 sc
CM
527.72791 239.72791 m
534.75739 232.69847 534.75739 221.30153 527.72791 214.27209 c
520.69849 207.24263 509.30151 207.24263 502.27209 214.27209 c
495.24261 221.30153 495.24261 232.69847 502.27209 239.72791 c
509.30151 246.75737 520.69849 246.75737 527.72791 239.72791 c
f
0 0 0 sc
1 0 0 -1 -34 371 cm
561.72791 131.27209 m
568.75739 138.30153 568.75739 149.69847 561.72791 156.72791 c
554.69849 163.75737 543.30151 163.75737 536.27209 156.72791 c
529.24261 149.69847 529.24261 138.30153 536.27209 131.27209 c
543.30151 124.24262 554.69849 124.24262 561.72791 131.27209 c
S
1 1 1 sc
CM
563.72791 203.72791 m
570.75739 196.69847 570.75739 185.30153 563.72791 178.27209 c
556.69849 171.24263 545.30151 171.24263 538.27209 178.27209 c
531.24261 185.30153 531.24261 196.69847 538.27209 203.72791 c
545.30151 210.75737 556.69849 210.75737 563.72791 203.72791 c
f
0 0 0 sc
1 0 0 -1 -34 371 cm
597.72791 167.27209 m
604.75739 174.30153 604.75739 185.69847 597.72791 192.72791 c
590.69849 199.75737 579.30151 199.75737 572.27209 192.72791 c
565.24261 185.69847 565.24261 174.30153 572.27209 167.27209 c
579.30151 160.24263 590.69849 160.24263 597.72791 167.27209 c
S
0.84256601 0.0169363 0 sc
CM
572.72791 149.72791 m
579.75739 142.69847 579.75739 131.30153 572.72791 124.27209 c
565.69849 117.24262 554.30151 117.24262 547.27209 124.27209 c
540.24261 131.30153 540.24261 142.69847 547.27209 149.72791 c
554.30151 156.75737 565.69849 156.75737 572.72791 149.72791 c
f
0 0 0 sc
1 0 0 -1 -34 371 cm
606.72791 221.27209 m
613.75739 228.30153 613.75739 239.69847 606.72791 246.72791 c
599.69849 253.75737 588.30151 253.75737 581.27209 246.72791 c
574.24261 239.69847 574.24261 228.30153 581.27209 221.27209 c
588.30151 214.24263 599.69849 214.24263 606.72791 221.27209 c
S
1 1 1 sc
CM
383.72791 239.72791 m
390.75739 232.69847 390.75739 221.30153 383.72791 214.27209 c
376.69849 207.24263 365.30151 207.24263 358.27209 214.27209 c
351.24261 221.30153 351.24261 232.69847 358.27209 239.72791 c
365.30151 246.75737 376.69849 246.75737 383.72791 239.72791 c
f
0 0 0 sc
1 0 0 -1 -34 371 cm
417.72791 131.27209 m
424.75739 138.30153 424.75739 149.69847 417.72791 156.72791 c
410.69849 163.75737 399.30151 163.75737 392.27209 156.72791 c
385.24261 149.69847 385.24261 138.30153 392.27209 131.27209 c
399.30151 124.24262 410.69849 124.24262 417.72791 131.27209 c
S
0.84256601 0.0169363 0 sc
CM
347.72791 203.72791 m
354.75739 196.69847 354.75739 185.30153 347.72791 178.27209 c
340.69849 171.24263 329.30151 171.24263 322.27209 178.27209 c
315.24261 185.30153 315.24261 196.69847 322.27209 203.72791 c
329.30151 210.75737 340.69849 210.75737 347.72791 203.72791 c
f
0 0 0 sc
1 0 0 -1 -34 371 cm
381.72791 167.27209 m
388.75739 174.30153 388.75739 185.69847 381.72791 192.72791 c
374.69849 199.75737 363.30151 199.75737 356.27209 192.72791 c
349.24261 185.69847 349.24261 174.30153 356.27209 167.27209 c
363.30151 160.24263 374.69849 160.24263 381.72791 167.27209 c
S
1 1 1 sc
CM
457.27209 7.2720919 m
450.24261 14.301524 450.24261 25.698477 457.27209 32.727909 c
464.30151 39.757378 475.69849 39.757378 482.72791 32.727909 c
489.75739 25.698477 489.75739 14.301524 482.72791 7.2720919 c
475.69849 0.242624 464.30151 0.242624 457.27209 7.2720919 c
f
0 0 0 sc
1 0 0 -1 -34 371 cm
491.27209 363.72791 m
484.24261 356.69849 484.24261 345.30151 491.27209 338.27209 c
498.30151 331.24261 509.69849 331.24261 516.72791 338.27209 c
523.75739 345.30151 523.75739 356.69849 516.72791 363.72791 c
509.69849 370.75739 498.30151 370.75739 491.27209 363.72791 c
S
1 1 1 sc
CM
358.27209 34.272091 m
351.24261 41.301525 351.24261 52.698475 358.27209 59.727909 c
365.30151 66.757378 376.69849 66.757378 383.72791 59.727909 c
390.75739 52.698475 390.75739 41.301525 383.72791 34.272091 c
376.69849 27.242624 365.30151 27.242624 358.27209 34.272091 c
f
0 0 0 sc
1 0 0 -1 -34 371 cm
392.27209 336.72791 m
385.24261 329.69849 385.24261 318.30151 392.27209 311.27209 c
399.30151 304.24261 410.69849 304.24261 417.72791 311.27209 c
424.75739 318.30151 424.75739 329.69849 417.72791 336.72791 c
410.69849 343.75739 399.30151 343.75739 392.27209 336.72791 c
S
1 1 1 sc
CM
322.27209 70.272095 m
315.24261 77.301521 315.24261 88.698479 322.27209 95.727905 c
329.30151 102.75738 340.69849 102.75738 347.72791 95.727905 c
354.75739 88.698479 354.75739 77.301521 347.72791 70.272095 c
340.69849 63.242622 329.30151 63.242622 322.27209 70.272095 c
f
0 0 0 sc
1 0 0 -1 -34 371 cm
356.27209 300.72791 m
349.24261 293.69849 349.24261 282.30151 356.27209 275.27209 c
363.30151 268.24261 374.69849 268.24261 381.72791 275.27209 c
388.75739 282.30151 388.75739 293.69849 381.72791 300.72791 c
374.69849 307.75739 363.30151 307.75739 356.27209 300.72791 c
S
1 1 1 sc
CM
538.27209 70.272095 m
531.24261 77.301521 531.24261 88.698479 538.27209 95.727905 c
545.30151 102.75738 556.69849 102.75738 563.72791 95.727905 c
570.75739 88.698479 570.75739 77.301521 563.72791 70.272095 c
556.69849 63.242622 545.30151 63.242622 538.27209 70.272095 c
f
0 0 0 sc
1 0 0 -1 -34 371 cm
572.27209 300.72791 m
565.24261 293.69849 565.24261 282.30151 572.27209 275.27209 c
579.30151 268.24261 590.69849 268.24261 597.72791 275.27209 c
604.75739 282.30151 604.75739 293.69849 597.72791 300.72791 c
590.69849 307.75739 579.30151 307.75739 572.27209 300.72791 c
S
468.5 117 m
485.5 117 l
S
519.73132 126.7429 m
532.89142 134.89333 l
S
365.5809 269.81696 m
362.29785 252.35757 l
S
374.36029 222.33449 m
489.6506 128.67888 l
S
382.08145 301.08145 m
391.91855 310.91855 l
S
485.5 351.0033 m
468.5 351.00632 l
S
434.26865 341.25711 m
421.10861 333.10666 l
S
412.98383 307.306 m
496.01349 133.69272 l
S
492.53644 336.4776 m
380.47424 194.51395 l
S
412.98383 160.69402 m
496.01349 334.30728 l
S
454.16272 135.02806 m
499.86691 332.96515 l
S
519.73132 341.25708 m
532.89142 333.10666 l
S
518.57831 339.60742 m
570.27734 299.20584 l
S
515.27722 336.33206 m
582.69354 248.64536 l
S
486.13779 346.17261 m
422.79938 329.05499 l
S
562.08148 310.91855 m
571.91852 301.08145 l
S
588.41913 269.81696 m
591.70215 252.35757 l
S
582.72278 219.33205 m
515.30646 131.64536 l
S
511.9212 133.72382 m
577.07373 271.27859 l
S
573.53644 273.4776 m
461.47424 131.51395 l
S
442.0788 133.72382 m
376.92627 271.27859 l
S
507.93369 135.07919 m
545.10364 305.91275 l
S
534.55444 155.56003 m
383.46747 276.46738 l
S
385.55127 279.72437 m
568.44873 188.27563 l
S
576.00763 238.31508 m
386.98358 283.64841 l
S
566.5 288 m
387.5 288 l
S
369 198.50002 m
369 269.5 l
S
400.52478 161.95334 m
373.57413 270.0715 l
S
1 1 1 sc
CM
338.72791 149.72791 m
345.75739 142.69847 345.75739 131.30153 338.72791 124.27209 c
331.69849 117.24262 320.30151 117.24262 313.27209 124.27209 c
306.24261 131.30153 306.24261 142.69847 313.27209 149.72791 c
320.30151 156.75737 331.69849 156.75737 338.72791 149.72791 c
f
0 0 0 sc
1 0 0 -1 -34 371 cm
372.72791 221.27209 m
379.75739 228.30153 379.75739 239.69847 372.72791 246.72791 c
365.69849 253.75737 354.30151 253.75737 347.27209 246.72791 c
340.24261 239.69847 340.24261 228.30153 347.27209 221.27209 c
354.30151 214.24263 365.69849 214.24263 372.72791 221.27209 c
S
0.84256601 0.0169363 0 sc
CM
403.27209 7.2720919 m
396.24261 14.301524 396.24261 25.698477 403.27209 32.727909 c
410.30151 39.757378 421.69849 39.757378 428.72791 32.727909 c
435.75739 25.698477 435.75739 14.301524 428.72791 7.2720919 c
421.69849 0.242624 410.30151 0.242624 403.27209 7.2720919 c
f
0 0 0 sc
1 0 0 -1 -34 371 cm
437.27209 363.72791 m
430.24261 356.69849 430.24261 345.30151 437.27209 338.27209 c
444.30151 331.24261 455.69849 331.24261 462.72791 338.27209 c
469.75739 345.30151 469.75739 356.69849 462.72791 363.72791 c
455.69849 370.75739 444.30151 370.75739 437.27209 363.72791 c
S
1 1 1 sc
CM
502.27209 34.272091 m
495.24261 41.301525 495.24261 52.698475 502.27209 59.727909 c
509.30151 66.757378 520.69849 66.757378 527.72791 59.727909 c
534.75739 52.698475 534.75739 41.301525 527.72791 34.272091 c
520.69849 27.242624 509.30151 27.242624 502.27209 34.272091 c
f
0 0 0 sc
1 0 0 -1 -34 371 cm
536.27209 336.72791 m
529.24261 329.69849 529.24261 318.30151 536.27209 311.27209 c
543.30151 304.24261 554.69849 304.24261 561.72791 311.27209 c
568.75739 318.30151 568.75739 329.69849 561.72791 336.72791 c
554.69849 343.75739 543.30151 343.75739 536.27209 336.72791 c
S
ep
end
%%Trailer
%%EOF
